*** Darwin 11x23 ***
Turn = 0.
  01234567890123456789012
0 ...f..h................
1 h.h.f..hr.th......r.f.h
2 ...h....tf.t.......r...
3 ...hf..................
4 .r......fr.t.h........t
5 ...t.....t.........f...
6 ............h....ff....
7 f..................t.h.
8 t.....f.ftthf...f..h.t.
9 ..fr...h..f....h.h.rr.h
0 ..r.h.......r.f...f....

Turn = 3.
  01234567890123456789012
0 ..hfh..h.r.......r.....
1 ..hhf.....tt........f..
2 h.......tt.r...........
3 ....f......rh.........h
4 ....r...f..r.......r..t
5 ...t.....t.........r...
6 .................ff....
7 f.r..........h.....t.t.
8 t.r...f.ftthf...f...tt.
9 .....rr...t.h.h.r..h...
0 .......h.....rr...fr...

Turn = 6.
  01234567890123456789012
0 ..hfh..h....r.r........
1 ..hhf.....tth.......f..
2 h.......tt.t...........
3 ....f......t..........t
4 ..r....rf.....r..r....t
5 ..rt.....t............r
6 .................ff....
7 t..................t.t.
8 t....r..ttttfr..f...tt.
9 .....r....trrrr.h..r...
0 .....r....h.....rr.....

Turn = 9.
  01234567890123456789012
0 ..hfh..h.....r.........
1 ..rhf.....ttt.......f..
2 h.r.....tt.t..r........
3 ..r.f......t....r.....t
4 ......................t
5 ...t...r.t.....r......t
6 ........r........ffr...
7 t..................r.t.
8 t.r.....tttttr..r...tt.
9 ..r.......ttt.rrr......
0 ........r.t..r....r....

Turn = 12.
  01234567890123456789012
0 ..hrr..h..r.....r......
1 ..r.f.....ttt.......f..
2 h.r.r...tt.t...........
3 r...f......t.......r..t
4 ...................r..t
5 ...t.....t....r.......t
6 ..........r.....rff....
7 t.......r......r.....t.
8 tt.....rr.rttt..r..rtt.
9 r.........ttr..........
0 ..........rrr.r......r.

Turn = 15.
  01234567890123456789012
0 ..rr..rrr.....r....r...
1 r...f.....ttt......rf..
2 r......rtt.t...........
3 .r..f.....rt....r.....t
4 ......................t
5 ..rt....rt.r........r.t
6 ...............r.ff....
7 t..........rr........r.
8 tt.........rr......rrr.
9 ..........tttr........r
0 .r.....r..ttrr.........

Turn = 18.
  01234567890123456789012
0 rrr...rrr..r....r....r.
1 r...f..r.r.tt......r...
2 ........rttt........r..
3 ...rr...r.rr........r.t
4 ..................r..rt
5 ...t.....t.rr........rt
6 ...........r....r.r.r.r
7 t......................
8 ttt............r.......
9 ..........ttrr.........
0 ....rr....tttt.....r...

Turn = 21.
  01234567890123456789012
0 rr..r.r.r.........r...r
1 .r.rrrr.r..tt.....r....
2 ......r.rrttr.......r.r
3 .r.......r.r....rr..rrr
4 ...........r.........tr
5 ...t.....tr...........r
6 ....r................rr
7 t....r.................
8 ttt...............r....
9 ..........ttt..........
0 .....r....tttr..rr.....

Turn = 24.
  01234567890123456789012
0 ..rrrrr..r..t...rr..rr.
1 ..rr..r....tt.........r
2 r.....r...tt.........rr
3 ....rrrrr.....r......tr
4 .....r........r......rt
5 ...t...rr............rt
6 .r.....................
7 t......................
8 ttt..............r...r.
9 ....r.....ttt.........r
0 ........r.tttr.r.......

Turn = 27.
  01234567890123456789012
0 rrr.rr.....rt.....r..rr
1 ...r..r....tt...r..r..r
2 ...r......tt.........t.
3 ...rrrr....r.........tr
4 ...r.r...........r...rr
5 r..trrr..........r...rr
6 .......................
7 tt....................r
8 ttt....................
9 ..........trt..........
0 ...r.....rrrrrr.......r

Turn = 30.
  01234567890123456789012
0 .r.r...r...rt........rr
1 rrr........rt...r....rr
2 ..........tt.....r..r..
3 .r..rrr....t.........tt
4 r...rr.r........r...rtr
5 ...ttt..r..............
6 t.....................r
7 tt.......r....r.......r
8 ttt.........rr.......rr
9 ..........rr...........
0 r.........rrr..........

Turn = 33.
  01234567890123456789012
0 ..r.r....rr.t....r...rr
1 r.......r...tr........r
2 ...r......tt.....r...t.
3 r.r......r.t.........rr
4 rr..tt...rr...r......r.
5 ...ttt.....rrr......r.r
6 tr.........r.........r.
7 tt.........r....r..r...
8 ttt................r...
9 .......r...............
0 r......r..r..........r.

Turn = 36.
  01234567890123456789012
0 r..........rt.......rrr
1 r.rrrr...rtrr.r.....r..
2 ..........trrrr......t.
3 ..........rr.........tt
4 .r.ttt.....r......r...r
5 .t.ttt......r..........
6 tt.......r.............
7 tt.......r......r......
8 ttt.............r...r..
9 ....r................r.
0 r...r..r........r.....r

Turn = 39.
  01234567890123456789012
0 rrr.....r..rrr.r.....r.
1 ..r.......tr.r...r....r
2 ..........tt.r......rt.
3 ...tr.....t.r.r......tt
4 .r.trr........rr......t
5 .t.ttt.........r.......
6 tt....r................
7 tt....r......r.........
8 rtt..........r........r
9 r.t....................
0 .r..r.............r.r.r

Turn = 42.
  01234567890123456789012
0 rr...r.....t....r.r...r
1 r.........ttt..r.......
2 ..........tt..rrr....tt
3 r..tt.....t......r...tt
4 .r.ttt................t
5 .t.ttt............r.r.r
6 tt.r........r..r.......
7 tt.r......r............
8 rtt.......r...........r
9 r.t....................
0 rr..................rr.

Turn = 45.
  01234567890123456789012
0 r.r........t..rr...r.r.
1 ..........ttt.........t
2 r.........tt.........tt
3 ...tt.....t.........rtt
4 rr.ttt................t
5 rr.ttt.........rr....rt
6 rrr...................t
7 ttr....r............r..
8 ttt....r............r..
9 r.t.........r..r.......
0 r.r...................r

Turn = 48.
  01234567890123456789012
0 r..........tt........rr
1 ..........ttt........rt
2 r.........tt.........rt
3 rr.tt.....t....r.....rt
4 rrrttt................t
5 ..rttt.................
6 tr.................r.r.
7 t.r.rr...........r....r
8 ttt.r..........rr.....r
9 t.t....................
0 t....r.....r..r....r...

Turn = 51.
  01234567890123456789012
0 r..........tt........rr
1 rr.r......ttt.....r.r.r
2 r.rr......tt.........r.
3 ..r.t.....t..........tt
4 ...ttt................t
5 .t.trt.................
6 tt.rr..........rr......
7 t.............r.....r..
8 tttr...................
9 t.t..................r.
0 t....r..rr.r...rrr....r

Turn = 54.
  01234567890123456789012
0 .rr.r......tt......r..r
1 r.r.r.....ttt..r.r.....
2 ..........tt......r..r.
3 ...tt.....t..........rr
4 r..ttt................t
5 .t.ttt.................
6 tt.t.t.......r.........
7 t........r.r.....r.....
8 tttt.............r.....
9 t.t............r.......
0 t......rrr..r....r..rr.

Turn = 57.
  01234567890123456789012
0 r...r..r...tt...r....r.
1 ....r..r..ttrrr......r.
2 ..........tt...r...r...
3 ...tt.....t...........r
4 r..ttt...r..........r..
5 tt.ttt.................
6 tt.t.t....r............
7 t.......rr....r........
8 tttt....r...........r..
9 t.t................rr..
0 t.....r..r....r...r....

Turn = 60.
  01234567890123456789012
0 .......r..rttr....r.r..
1 .......r.rrttrr........
2 .........rtt.t..r......
3 r..tt.....t............
4 r..ttt...........r.....
5 tt.ttt.................
6 tt.t.t.r...........rr.r
7 t....r.r...r...........
8 tttt.r................r
9 t.t....................
0 t..r..r....r...r.......

Turn = 63.
  01234567890123456789012
0 .........rrrtt.r.r.....
1 ........rrrtt..........
2 ........r.tt...........
3 ..ttt.....t..rrr...rr..
4 r..ttt........r........
5 r..ttt.......r.........
6 tt.t.tt................
7 tt...rr.r............r.
8 tttrr...............r..
9 t.t....................
0 rr.r....r...r..........

*** Darwin 24x20 ***
Turn = 0.
  01234567890123456789
0 ......r.f.......f...
1 .....r.............f
2 ..f...t...ft........
3 t.............t.....
4 .....r........ft..r.
5 ..f.....h...........
6 .........r..........
7 ......h....fr.......
8 tf.h.t.........h....
9 ...........h..h.....
0 ....f...f...........
1 .r.t.....r..h......f
2 .r..................
3 ...f...rh..r....h...
4 ......f.............
5 .h.t..........rt..r.
6 ...f................
7 .f..................
8 ...t.....t..r.ht....
9 .............h......
0 .....r......t.......
1 .........fff..r..f..
2 ..........f.....f..r
3 ......h.............

Turn = 2.
  01234567890123456789
0 ....r...f.......f...
1 .......r...........f
2 ..f...t...tt........
3 t.............t.....
4 ..............ft....
5 ..f...h.....r.......
6 .....r..r.........r.
7 ........r..f........
8 ttt..t.....h........
9 ....................
0 ....f...f......h....
1 r..t...rh....hh....f
2 ...r................
3 .h.f.....r...rh.....
4 ......f........r....
5 ...t..........r.....
6 ...f..........h.....
7 .f................r.
8 ...t.....tr....t....
9 ..............r.....
0 ...r........tt......
1 .........fff.....f..
2 ..........f.....fr..
3 ....h...............

Turn = 4.
  01234567890123456789
0 ..r.....f.......f...
1 .........r.........f
2 ..f...t...tt........
3 t.....h.....r.t.....
4 ..............tt....
5 ..f.................
6 ......r.............
7 .....t.....f........
8 ttt..t.....h......r.
9 .......rr...........
0 ....f...f...........
1 .h.t....h.....h....f
2 ...t..........rr....
3 r..f.........rrr....
4 ......f.............
5 ...t.....r....r.....
6 ...t...........r....
7 .f............r.....
8 ...t....rr.....t....
9 ..................r.
0 .r..........tt......
1 .........fff.....f..
2 ..........f.....r...
3 ..h.............r...

Turn = 6.
  01234567890123456789
0 r.......f.......f...
1 ...........tr......f
2 ..f...t...tt........
3 t.....h.......t.....
4 ..............tt....
5 ..f.................
6 ....r...............
7 .....t.r...f........
8 ttt..t.....h........
9 .h......r...........
0 ....f...r.........r.
1 ...t...r........h..f
2 ...t.........rr.....
3 ...t.........r..r...
4 ......f.............
5 r..t.........rr.r...
6 ...t.............r..
7 .f.......r..........
8 ...t..rr.......t....
9 ....................
0 r...........tt......
1 .........fff.....fr.
2 ..........f...r.....
3 h................r..

Turn = 8.
  01234567890123456789
0 ........f.......f...
1 r..........tt......f
2 ..f...t...tt........
3 t.....t.......t.....
4 ..............tt....
5 ..f....r............
6 ..r.................
7 .....t.....f........
8 ttt..t.....h........
9 .h....r.............
0 ....f.r.............
1 ...t.r...........h.f
2 ...t.......rr.....r.
3 ...t.......r..r...r.
4 ......f.............
5 ...t..............r.
6 ...t...............r
7 rf...........r......
8 ...trr.........t....
9 .........r..........
0 ............tt......
1 .........fff.....f..
2 r.........f.r.....r.
3 h..................r

Turn = 10.
  01234567890123456789
0 ........f.......f...
1 ...........tt......f
2 t.f...t...tt........
3 t.....tr......t.....
4 ..............tt....
5 ..f.................
6 r...................
7 .....t.....f........
8 ttt..t.....h........
9 .t...t..............
0 ....rr..............
1 ...rr.........r...hf
2 ...t.....rr........r
3 ...t.....r.........r
4 ......f.............
5 ...t...............r
6 ...t...............r
7 .f...r..............
8 ...r...........t....
9 r..r.........r......
0 .........r..tt......
1 ..........ff.....f..
2 r........rrr.......r
3 r..................r

Turn = 12.
  01234567890123456789
0 ........f.......f...
1 ...........tt......f
2 t.f...t...tt........
3 t.....tt......t.....
4 ..............tt....
5 r.f.................
6 ....................
7 .....t.....f........
8 ttt..t.....h........
9 .t...t........r.....
0 ....r...............
1 .rr..r............hr
2 ...t...rr..........r
3 ...t...r............
4 ......f............r
5 ...t.r............r.
6 ...t.............r..
7 .f..................
8 .r.............t....
9 .............t......
0 ............tt......
1 r..r.....rff.....f..
2 r.r.....rr........r.
3 .........r.......r..

Turn = 14.
  01234567890123456789
0 ........f.......f...
1 ...........tt......f
2 t.f...t...tt........
3 r.....tt......t.....
4 r.............tt....
5 ..f.................
6 ....................
7 .....t.....f..r.....
8 ttt..t.....h........
9 .t...t.............r
0 ......r............r
1 rr................h.
2 ...t.rr.............
3 ...t.rr.............
4 .....rf..........r..
5 ...t............r...
6 ...t...........r....
7 .f..................
8 r..............t....
9 ..........r..t......
0 ............tt......
1 .r........rf.....f..
2 .r....rr........r...
3 ..rr...r.......r....

Turn = 16.
  01234567890123456789
0 ........f.......f...
1 ...........tt......f
2 t.f...t...tt........
3 r.....tt......t.....
4 .r............tt....
5 ..f...........r.....
6 ....................
7 .....t.....f.......r
8 ttt..t.....h.......r
9 rt...t..............
0 .t......r...........
1 ...................h
2 ...trr..............
3 ...t.rr.............
4 .....r.........r....
5 ...t.r........r.....
6 ...t.........r......
7 .f........r.........
8 ...............t....
9 .............t......
0 r..........rtt......
1 ...r......r......f..
2 ...rrr........r.....
3 ..r.rr.......r......

Turn = 18.
  01234567890123456789
0 ........f.......f...
1 ...........tt......f
2 t.f...t...tt........
3 t.....tt......t.....
4 ...r.........rrt....
5 ..f................r
6 ...................r
7 .....t.....f........
8 rtt..t.....h........
9 rt...t..............
0 .t........r.........
1 ...................h
2 ...ttt..............
3 ...t..r.r...........
4 ...r.........r......
5 ...t......r.r.......
6 ...t.......r........
7 .f...r..............
8 ...........r...t....
9 ..........r..t......
0 ............tt......
1 ...rrr...........f..
2 r...rr......r.......
3 .r...r.....r........

*** Darwin 14x21 ***
Turn = 0.
  012345678901234567890
0 ..t.............t....
1 ..t...h....fh.t....t.
2 .....r.........h.....
3 ..................t..
4 .....fh.............f
5 .......f.............
6 ......r..h...h....f..
7 .....f....ff..t...h..
8 ...............f...r.
9 ..........t......h..r
0 ...........r.........
1 r.......r...r.....fh.
2 ...f..............r..
3 t...f................

Turn = 7.
  012345678901234567890
0 ..t.........h...t....
1 ..t........f..t....t.
2 ........h........h...
3 ...r..............t..
4 r.......r....h.....hr
5 .......f...........r.
6 r.h...............f..
7 .....f....ff..tt.....
8 ......r........tt....
9 ..........t..........
0 ..................r..
1 .r...r............f..
2 ...f.................
3 t...f........h......r

Turn = 14.
  012345678901234567890
0 r.t.........h...tt...
1 ..t........f..t....t.
2 .h.................t.
3 ..................t..
4 r..............r.tt..
5 r......f....r........
6 r.................f..
7 r....f....ff..tt.....
8 ...............tt...r
9 ..........t..........
0 .....................
1 ..................f..
2 r..f................r
3 t...fr.......h.......

Turn = 21.
  012345678901234567890
0 rtt.........h...tt...
1 ..t........f..t.r..tr
2 .................r.t.
3 ..r.................r
4 ..r...r.........r....
5 .....rr..............
6 .......r..........f..
7 .....f....ff..tt.....
8 r...rr.........tt....
9 ..........t..........
0 .....................
1 ..................f..
2 ....r................
3 ..r..........h.r.....

Turn = 28.
  012345678901234567890
0 ttt........rhr..t...r
1 r.t.r.....r..r.....tt
2 .....r......r......t.
3 .........r.r.........
4 r........r...........
5 .....................
6 .r............r...f..
7 r.........ff..tt.....
8 ...............tt....
9 r.........t.........r
0 .............r.......
1 ..................f..
2 ...........r.........
3 ...........r.........

Turn = 35.
  012345678901234567890
0 rrr..r...r....r.tr...
1 r.r...r..r.........t.
2 rr.rr.r............tt
3 .............r.r.....
4 ..r.............r....
5 .....................
6 ............r.......r
7 ..........ff..tt.....
8 ...............tt....
9 ..........t..........
0 ..................r..
1 ..................f..
2 ..................r.r
3 .r..r................

Turn = 42.
  012345678901234567890
0 ..rrr.....rr...ttt..r
1 .r.rr..............tr
2 ......r............t.
3 ..r.rr...............
4 .....................
5 ..r................rr
6 .....................
7 ..........ff..tt...r.
8 ...r...........tt....
9 ...rr.....t..........
0 ..r..........r.......
1 ...r.................
2 ....................r
3 ............r.......r

Turn = 49.
  012345678901234567890
0 r..............ttt..t
1 ...................tt
2 ...................tt
3 .....................
4 ..r..................
5 ....................r
6 r..rr.....rr.........
7 ..........f...tt.....
8 ..r.r......r...tt....
9 .r....r.r.t..........
0 ..r.rr...............
1 .......r..r..........
2 ..r................r.
3 ..r...r......r.....r.

*** Darwin 18x22 ***
Turn = 0.
  0123456789012345678901
0 ......................
1 ......f.....f.........
2 ................f..r..
3 .................f....
4 ................f.....
5 ......................
6 ......................
7 ..h...................
8 ............h.........
9 ........r............r
0 .....th....r..........
1 ......................
2 ......................
3 f.....................
4 r...h.................
5 ..........h..t........
6 ......................
7 .h.t..................

Turn = 4.
  0123456789012345678901
0 ..................r...
1 ......f.....f.........
2 ................f.....
3 .................f....
4 ................f.....
5 ........r.............
6 ...........r..........
7 ......h...............
8 ........h.............
9 ......................
0 .....tt...............
1 r.....................
2 .....................r
3 ...r..................
4 ........h.............
5 ......h......t........
6 ......................
7 .h.t..................

Turn = 8.
  0123456789012345678901
0 ..............r.......
1 ......f.r...f.........
2 ...........r....f.....
3 .................f....
4 ................f.....
5 ......................
6 ......................
7 r.........h...........
8 ....h.................
9 ......................
0 .....tt...............
1 ......................
2 ......................
3 .......r..............
4 ............h.........
5 ..h..........t........
6 .....................r
7 .h.t..................

Turn = 12.
  0123456789012345678901
0 ..........rrr.........
1 ......f.....f.........
2 ................f.....
3 r................f....
4 ................f.....
5 ......................
6 ......................
7 ..............h.......
8 h.....................
9 ......................
0 .....tt...............
1 ......................
2 ......................
3 ...........r..........
4 .............t........
5 h............t........
6 ......................
7 .h.t...............r..

Turn = 16.
  0123456789012345678901
0 r..........rr.........
1 ......f...............
2 ...........r....f.....
3 ..........r......f....
4 ................f.....
5 ......................
6 ......................
7 ..................h...
8 h.....................
9 ......................
0 .....tt...............
1 ......................
2 ......................
3 ...............r......
4 .............t........
5 h............t........
6 ......................
7 .h.t...........r......

Turn = 20.
  0123456789012345678901
0 .......r.r............
1 ......f...............
2 ................f.....
3 r................f....
4 ................f.....
5 ......................
6 ...........r..........
7 ..........r..........h
8 h.....................
9 ......................
0 .....tt...............
1 ......................
2 ......................
3 ...................r..
4 .............t........
5 h............t........
6 ......................
7 .h.t.......r..........

Turn = 24.
  0123456789012345678901
0 ...r.r................
1 ......f...............
2 ................f.....
3 .................f....
4 ................f.....
5 ......................
6 ......................
7 r....................h
8 h.....................
9 ......................
0 .....tt....r..........
1 ..........r...........
2 .....................r
3 ......................
4 .............t........
5 h............t........
6 ......................
7 .h.t...r..............

Turn = 28.
  0123456789012345678901
0 rr....................
1 ......f...............
2 ................f.....
3 .................f....
4 ................f.....
5 ......................
6 ......................
7 .....................h
8 r....................r
9 ......................
0 .....tt...............
1 r.....................
2 ......................
3 ......................
4 ...........r.t........
5 h.........r..t........
6 ......................
7 .h.rr.................

Turn = 32.
  0123456789012345678901
0 ......................
1 ......f...............
2 r...............f.....
3 .r...............f....
4 ................f.....
5 ......................
6 ......................
7 .....................r
8 .....................r
9 ......................
0 .....tt...............
1 ......................
2 r.....................
3 ......................
4 r..r.........t........
5 r............t........
6 ......................
7 .hr.......rr..........

Turn = 36.
  0123456789012345678901
0 ......................
1 ......f...............
2 ................f.....
3 .................f....
4 ................f.....
5 ......................
6 r.....................
7 .r....................
8 ......................
9 .....................r
0 ...r.tt...............
1 .....................r
2 r.....................
3 ..r.......r...........
4 .............t........
5 ...r.........t........
6 ......................
7 .r.r...r..............

Turn = 40.
  0123456789012345678901
0 ......................
1 ......f...............
2 ................f.....
3 .................f....
4 ................f.....
5 ......................
6 ...r..................
7 ......................
8 ......................
9 r.........r...........
0 r....tt...............
1 .r....................
2 ......................
3 ......r..............r
4 .............t........
5 ......rr.....t.......r
6 ......................
7 .r...r................

Turn = 44.
  0123456789012345678901
0 ......................
1 ......f...............
2 ...r............f.....
3 .................f....
4 ................f.....
5 ..........r...........
6 ......................
7 ......................
8 ......................
9 ....r.................
0 .....tt...............
1 ......r...............
2 ......................
3 ..........r...........
4 r............t........
5 .r.........r.t........
6 .....................r
7 .....r...r..........r.

Turn = 48.
  0123456789012345678901
0 ....r.................
1 ......f...r...........
2 ................f.....
3 .................f....
4 ................f.....
5 ......................
6 ......................
7 ......................
8 ......................
9 ......t...............
0 .....tr...............
1 ......r...............
2 ......................
3 ..............r.......
4 ............r.........
5 ............r.........
6 ............r....r....
7 rr.......r...r..r.....

Turn = 52.
  0123456789012345678901
0 ........r...r.........
1 ......f...............
2 ................f.....
3 .................f....
4 ................f.....
5 ......................
6 ......................
7 ......................
8 ......................
9 ......t...............
0 .....tt...............
1 ......t...............
2 ......................
3 .r................r...
4 ........r.............
5 ........r......r......
6 ...........rrr........
7 ..r..........r........

Turn = 56.
  0123456789012345678901
0 ............r...r.....
1 ......f...............
2 ................f.....
3 .................f....
4 ................f.....
5 ......................
6 ......................
7 ......................
8 ......................
9 .r....t...............
0 .....tt...............
1 ......t........r......
2 ...........rr.........
3 .....................r
4 ....r.................
5 ....r.................
6 .........r............
7 ......r..r............

*** Darwin 18x17 ***
Turn = 0.
  01234567890123456
0 .......t..t.....r
1 ............t....
2 ......t..........
3 ..r..f...........
4 ...f..........hh.
5 .................
6 ...............r.
7 ...t.....h......h
8 .r...............
9 .r..r.......r....
0 r.............h..
1 ........h........
2 ...............t.
3 .................
4 ...........f.h...
5 ......r....f.....
6 f........t.......
7 .................

Turn = 5.
  01234567890123456
0 ...r...t..t....h.
1 ............t..r.
2 ......t..........
3 .....f...........
4 ...f.....h..r....
5 ................r
6 r.......h........
7 ...t.........h..h
8 .................
9 .................
0 ................h
1 .................
2 r..............t.
3 .................
4 ....r......f....h
5 rr.........f.....
6 f........t.......
7 .................

Turn = 10.
  01234567890123456
0 ......rr..t......
1 r.......h...rr..r
2 ......t......r...
3 .....f...........
4 ...fh............
5 .................
6 ..............r..
7 ...t...........h.
8 ................r
9 .................
0 ................h
1 .r...............
2 ...............t.
3 .................
4 ...........f....h
5 ...........f.....
6 r....r...t.......
7 .r...r...........

Turn = 15.
  01234567890123456
0 ...r.....trr.....
1 .......r....r...r
2 ......t..........
3 .....f...........
4 ...fh............
5 .......r.........
6 .r.......r......r
7 ...t............h
8 .................
9 ..............r.r
0 .................
1 .................
2 ...............t.
3 .................
4 ...........f....h
5 .........r.f.....
6 .....r..r........
7 ......r...r......

Turn = 20.
  01234567890123456
0 ........tttt.r...
1 .r...............
2 ......t..........
3 .....f...........
4 ...fh............
5 .................
6 ....r..r....rr...
7 ...t............r
8 ................r
9 .........r.......
0 .......r.r.......
1 .................
2 ...............t.
3 .................
4 ...........f....h
5 ...........f.....
6 ..........r......
7 .....r...r.....r.

Turn = 25.
  01234567890123456
0 r.......ttt.r....
1 .................
2 ......t.....r....
3 .....f...........
4 ...fh............
5 .................
6 r.......r........
7 ...t....r...r....
8 .........r..r....
9 ....r............
0 .................
1 ............r....
2 ...............t.
3 .................
4 ...........f....h
5 .......r...f.....
6 ...............r.
7 r.............rr.

Turn = 30.
  01234567890123456
0 .....r..ttt.....r
1 .................
2 ......t..........
3 .....f...........
4 ...fh............
5 ...........r.....
6 ...r.............
7 ...tt..r....r....
8 .................
9 r................
0 .................
1 r.........r......
2 ...............r.
3 ...............r.
4 ...........f....r
5 r..........f....r
6 ............r....
7 .........r......r

Turn = 35.
  01234567890123456
0 ........r.tr.....
1 .......r.........
2 ......t..r.......
3 .....f...........
4 ...fh............
5 ................r
6 .................
7 r..rr............
8 .....r...........
9 ................r
0 .................
1 ............r...r
2 rr.........r....r
3 ...........r.....
4 r..........f.....
5 ...........r.....
6 ..........rr.....
7 ...............r.

Turn = 40.
  01234567890123456
0 ...r......r.r....
1 .................
2 ......t..........
3 .....f...........
4 ...rr............
5 ....r............
6 .......r........r
7 .........r.......
8 ................r
9 r.r..............
0 ..............r.r
1 .r..r..r.........
2 ......r..........
3 ....rrr..........
4 ...........f.....
5 ...............r.
6 .......r.........
7 .......r......r..

Turn = 45.
  01234567890123456
0 ....r...........r
1 r...............r
2 ......t..........
3 .....f...........
4 r................
5 .........rr......
6 .................
7 .................
8 ..rr.............
9 ...r...r.........
0 .........r.......
1 ..r....r.........
2 .r.......r.......
3 .r..............r
4 .....r.....f.....
5 .......r........r
6 ...r.............
7 ..r......r......r

Turn = 50.
  01234567890123456
0 .........r..r...r
1 r................
2 ...r..t..........
3 ..r..f...........
4 .................
5 .................
6 .................
7 .................
8 r........r.......
9 r........r..r....
0 ....r............
1 r...r............
2 ..r..............
3 ...........r.....
4 ..........r......
5 r...........r....
6 r......r........r
7 .r..r......r....r

Turn = 55.
  01234567890123456
0 .r.r.............
1 .................
2 .....tt..........
3 .....f....rr.....
4 .................
5 ................r
6 .................
7 r................
8 ....r......r.....
9 ...r............r
0 r................
1 r................
2 .......r.........
3 .................
4 .........r.....r.
5 .....r..........r
6 r..r.r......r....
7 ..r.r.r....r.....

*** Darwin 20x5 ***
Turn = 0.
  01234
0 ..hf.
1 rf.r.
2 ..h.t
3 t..ht
4 .h..t
5 t.ht.
6 r..r.
7 f..ft
8 f...f
9 tt..f
0 ....h
1 hf...
2 .rf.f
3 .hh.t
4 ..ff.
5 r..rf
6 .r.f.
7 .r...
8 ..rf.
9 .rhr.

Turn = 4.
  01234
0 .rr.r
1 ..r..
2 ..h.t
3 t..rt
4 tt.rt
5 trr..
6 t....
7 t..tt
8 t...t
9 ttr.t
0 r....
1 hf...
2 r..tt
3 .hh.t
4 r.ff.
5 ....f
6 .....
7 ...r.
8 .rrrr
9 ..rrr

*** Darwin 23x8 ***
Turn = 0.
  01234567
0 ...th..h
1 h.fhtr.f
2 ft..t..t
3 .......f
4 .h.ff...
5 ...t.h..
6 f..h....
7 h...f..h
8 .ht.hr.h
9 .rh.h.t.
0 t...r.tf
1 ..t..h.f
2 tt...rfr
3 thr.h.r.
4 .....hr.
5 fhh.rr..
6 ..ft.r.h
7 ...r....
8 .rh.h..t
9 ttt.f...
0 .t.hth..
1 ..fh....
2 ...f..f.

Turn = 10.
  01234567
0 ...t...r
1 t.ttttr.
2 tt..trr.
3 .t...r.r
4 .t.tt...
5 .t.t...r
6 f......r
7 rr......
8 ..tttttr
9 ..t..tt.
0 t.tr....
1 ..rrr...
2 trrr....
3 ttt.r...
4 ....r...
5 f.......
6 ...r.r.r
7 .hr.r...
8 rrrr.ttt
9 tttr...t
0 .trtrt..
1 ..tt....
2 ...t..f.

*** Darwin 23x24 ***
Turn = 0.
  012345678901234567890123
0 .t.t........r...........
1 ....r.........r.t.f.....
2 ...h...h..t.....f...f...
3 ........................
4 ........rf............ft
5 ............r........h..
6 ..........rr............
7 .........f..............
8 .............h...h......
9 ........................
0 ........................
1 r..r........t...........
2 .......................t
3 ..............t...r...h.
4 ..........h.....h....t..
5 ...t............h.......
6 ..h........r..........r.
7 ...frrr.............t...
8 .h......f............f..
9 .................f.h....
0 ...f....................
1 ...r............r.h.....
2 .................h......

Turn = 8.
  012345678901234567890123
0 .t.tr.r..r.r..r.....r...
1 ...t.....r......t.f.....
2 ...t............t...f...
3 ........................
4 r.....................tt
5 ........................
6 ........................
7 .........f..............
8 .........h..............
9 ........................
0 .h....rh...............r
1 ...........rtt........r.
2 ........................
3 ..............t...h..rr.
4 ...........r...hh....t..
5 ...t............h.......
6 ...t....................
7 ....................t...
8 ........f.......r....f..
9 rr..............rr......
0 .......r................
1 ........................
2 r...r.......r......h...r

Turn = 16.
  012345678901234567890123
0 ..rrr...................
1 ..r.rr..........r.r.....
2 rh.t..r........r....f...
3 ............r...r.r....r
4 ..r..................rr.
5 ..................h...rr
6 ......................r.
7 .........f..r...........
8 .h......................
9 .......................r
0 ........................
1 .................r......
2 ........................
3 .............ttrr.......
4 ........................
5 r..t.........r..........
6 r..t................t...
7 ..r.................tt..
8 .......hf............t..
9 ..............r.........
0 r..............r........
1 ..................r.....
2 ...........r.......r.r..

Turn = 24.
  012345678901234567890123
0 .h....r.r...r......rr..r
1 ........................
2 ....................f.r.
3 .....r.................r
4 .............r..........
5 ........................
6 r.r............r...r....
7 r..r.....f.....rr.......
8 r...r........r..........
9 .r.r.r.......r..rr..rr..
0 .rr.....................
1 ...r....................
2 r.......................
3 .............tt...r.....
4 ........................
5 ...t.r..................
6 ...t................t...
7 ....................tt.r
8 ........f............t..
9 ..............rr......r.
0 .......................r
1 ........................
2 .......h................

Turn = 32.
  012345678901234567890123
0 .h.............r....r...
1 ........................
2 ........................
3 ........................
4 ........................
5 r.......rr........r.....
6 .....r.r...r........r...
7 ........rf.........r...r
8 .....r..............r...
9 ...r.r..................
0 ....r.................rr
1 ....rr...r.....r.......r
2 r.......................
3 .rrr.........tt.........
4 ..............t.........
5 r..r............r...t...
6 ..r.....r...........tr..
7 ...r.r..........rr..tt..
8 ........f............t..
9 .......................r
0 ........................
1 ....................r...
2 .......h................

Turn = 40.
  012345678901234567890123
0 rr.....rr.......r.......
1 .........r..............
2 ........................
3 ...............r........
4 ....r..................r
5 r.......................
6 r.......................
7 r........f..............
8 r.......................
9 ........................
0 ........r...............
1 .................r......
2 .r......................
3 ......r......tt.....r.r.
4 ......rr......t.....r..r
5 ........r..........rr.rr
6 ................r..r.tt.
7 .................r..tt..
8 ........f............t..
9 .....r..................
0 ...r.................r..
1 .rrr.............r......
2 .r...rrr..........r.....

Turn = 48.
  012345678901234567890123
0 ....rr..r..r............
1 ........................
2 ...r....................
3 ........................
4 r...rr..................
5 ......r.................
6 .....r................r.
7 .........f..............
8 .......r................
9 ...r.................r..
0 ...r..............r..r.r
1 ........................
2 .............r...r......
3 ...r........ttt....r....
4 ..............tt........
5 .....................rtr
6 .....................ttr
7 .....r......r........t..
8 ...rrr..............tt..
9 ........................
0 ...r...................r
1 ....r.r.................
2 .r.....rr......r.r.r...r

Turn = 56.
  012345678901234567890123
0 rr.r...................r
1 ........................
2 ..................r....r
3 ........................
4 ........................
5 ..............r....r....
6 .............r..........
7 ....rr...f.............r
8 .....r.........r.......r
9 ...........r.r..........
0 ...rr......r............
1 ....r.r........r........
2 r..r..r.........r......r
3 ............ttt..r......
4 ..............tt.......r
5 .....................rt.
6 r...............r....tt.
7 ......r.............tt..
8 ....................tt..
9 ........................
0 ...........r............
1 ............r...........
2 ..r..........rr........r

Turn = 64.
  012345678901234567890123
0 r...r........r.......r..
1 .................r......
2 ...r.................r..
3 r...........r..........r
4 ............r..........r
5 ........r.............rr
6 .....................r.r
7 ............r...........
8 r............r.........r
9 r.....r.................
0 r.............r.........
1 .............r..........
2 ............rr..........
3 ............r.tt........
4 .....r........ttt.......
5 ..........r..........rtr
6 r....................tt.
7 ....................tt..
8 r...................tt..
9 .r................r.....
0 ...................r....
1 ....................r...
2 ...................r..r.

Turn = 72.
  012345678901234567890123
0 .......r.r.r..r.r.......
1 .....rr.r.........r....r
2 .............rr...r.....
3 .............r..........
4 ....................r..r
5 .................r....r.
6 ....r.......r.r.......r.
7 ....r...............r..r
8 r....................r..
9 ........................
0 ........................
1 r.......................
2 ........................
3 ..................r.r...
4 .............rttt.......
5 ..r..................rt.
6 r....................tt.
7 .............r......tt.r
8 ....................tt..
9 .........r..............
0 ........................
1 r...................r..r
2 .r...................rr.

Turn = 80.
  012345678901234567890123
0 r...........rr...r.r..rr
1 ......r...rrr........r.r
2 .....r....r.............
3 ..........r............r
4 ............r..r...r....
5 ..........rr..r.........
6 ............r.r.........
7 ............r...........
8 ...............r........
9 ........................
0 ................r.......
1 .......................r
2 .....................r.r
3 ........................
4 r.................r...r.
5 .....................rr.
6 .....................tr.
7 r...................tt..
8 ....................tt..
9 .................r......
0 r.......................
1 ........r...r...r.......
2 .r.......r....rr.r......

Turn = 88.
  012345678901234567890123
0 r.......r......rrr.r...r
1 ...r..............r.....
2 r.r.....................
3 ..r.....r.......r......r
4 ....r...r......r.......r
5 .......r..........rr....
6 ...................r....
7 r.............rr......r.
8 ............r...........
9 ......................r.
0 .....................r..
1 ...............r........
2 .............r.r........
3 ................r.......
4 ..............r.........
5 .....................r..
6 ..........r..........t..
7 .............r......tt..
8 ....................tttr
9 .............r..........
0 .......................r
1 r..r........r...........
2 r........r...r..........

*** Darwin 20x8 ***
Turn = 0.
  01234567
0 ...f....
1 .t......
2 ttfrt...
3 .....hrh
4 ..h....r
5 ..ft....
6 ........
7 .....r..
8 h.......
9 ......f.
0 ........
1 .r...f..
2 ......f.
3 ....h...
4 ....h.ft
5 ..h.f...
6 f.......
7 .h......
8 .....h.f
9 h..hf...

Turn = 7.
  01234567
0 r....r.r
1 .t.....r
2 ttt.t...
3 ....t...
4 ..t.....
5 ..tt....
6 ........
7 .......r
8 r.......
9 r.....fr
0 .h......
1 .....f..
2 ......f.
3 h.......
4 .....ttt
5 h...f...
6 f.......
7 ........
8 ......hf
9 hh..f...

Turn = 14.
  01234567
0 rt......
1 tt......
2 rtt.t...
3 rh..t...
4 ..t.....
5 ..tt....
6 ........
7 .......r
8 .......r
9 ......f.
0 ........
1 .....f..
2 ......fr
3 h......t
4 .....ttt
5 h...f...
6 f.......
7 ........
8 ......hf
9 hh..f...

Turn = 21.
  01234567
0 tt......
1 tt......
2 ttt.t..r
3 tt..t...
4 ..t.....
5 ..tt...r
6 ........
7 .r......
8 ........
9 ......f.
0 ........
1 .....f..
2 ......f.
3 h......t
4 .....ttt
5 h...f...
6 f.......
7 ........
8 ......hf
9 hh..f...

Turn = 28.
  01234567
0 tt...r..
1 tt...r..
2 ttt.t...
3 tt..t...
4 ..t.....
5 ..tt....
6 ........
7 ........
8 ........
9 ......f.
0 ........
1 .....f..
2 r.....f.
3 h......t
4 .....ttt
5 h...f...
6 f.......
7 ........
8 ......hf
9 hh..f...

Turn = 35.
  01234567
0 ttt.....
1 tt..t...
2 ttt.t...
3 tt..t...
4 ..t.....
5 ..tt....
6 ........
7 ........
8 ........
9 ......f.
0 ........
1 .....f..
2 .....rf.
3 .....t.t
4 .....ttt
5 h...f...
6 f.......
7 ........
8 ......hf
9 hh..f...

Turn = 42.
  01234567
0 ttt.....
1 tt..t...
2 ttt.t...
3 tt..t...
4 ..t.....
5 ..tt..r.
6 ......r.
7 ........
8 ........
9 ........
0 ........
1 .....f..
2 ......r.
3 .....t..
4 .....ttr
5 h...f...
6 f......r
7 ........
8 ......hf
9 hh..f...

*** Darwin 19x23 ***
Turn = 0.
  01234567890123456789012
0 .......r....f..........
1 h......................
2 .......................
3 .........t.....r.......
4 .................f.....
5 ...f...........h.......
6 .......................
7 ................t......
8 ....t..................
9 .......................
0 ........r..............
1 .......................
2 .......................
3 .......................
4 ..............f........
5 .......................
6 .......................
7 .......................
8 .......................

Turn = 3.
  01234567890123456789012
0 ............f..r.......
1 .......................
2 .......................
3 .......r.t.............
4 h................f.....
5 ...f........h..........
6 .......................
7 ................t......
8 ....t..................
9 .......................
0 ...........r...........
1 .......................
2 .......................
3 .......................
4 ..............f........
5 .......................
6 .......................
7 .......................
8 .......................

Turn = 6.
  01234567890123456789012
0 ............f....r.....
1 .......................
2 .......................
3 .........t.............
4 .................f.....
5 ...f.....h.............
6 .......r...............
7 h...............t......
8 ....t..................
9 .......................
0 ..............r........
1 .......................
2 .......................
3 .......................
4 ..............f........
5 .......................
6 .......................
7 .......................
8 .......................

Turn = 9.
  01234567890123456789012
0 ............f.......r..
1 .......................
2 .......................
3 .........t.............
4 .................f.....
5 ...f..h................
6 .......................
7 ................t......
8 ....t..................
9 .......r...............
0 h................r.....
1 .......................
2 .......................
3 .......................
4 ..............f........
5 .......................
6 .......................
7 .......................
8 .......................

Turn = 12.
  01234567890123456789012
0 ............f.........r
1 .......................
2 .......................
3 .........t.............
4 .................f.....
5 ...fh..................
6 .......................
7 ................t......
8 ....t..................
9 .......................
0 ....................r..
1 .......................
2 .......r...............
3 h......................
4 ..............f........
5 .......................
6 .......................
7 .......................
8 .......................

Turn = 15.
  01234567890123456789012
0 ............f..........
1 ......................r
2 .......................
3 .........t.............
4 .................f.....
5 ...fh..................
6 .......................
7 ................t......
8 ....t..................
9 .......................
0 ......................r
1 .......................
2 .......................
3 .......................
4 ..............f........
5 .......r...............
6 h......................
7 .......................
8 .......................

Turn = 18.
  01234567890123456789012
0 ............f..........
1 .......................
2 .......................
3 .........t.............
4 .................f....r
5 ...fh..................
6 .......................
7 ................t......
8 ....t..................
9 .......................
0 .......................
1 .......................
2 .......................
3 ......................r
4 ..............f........
5 .......................
6 .......................
7 .......................
8 h......r...............

Turn = 21.
  01234567890123456789012
0 ............f..........
1 .......................
2 .......................
3 .........t.............
4 .................f.....
5 ...fh..................
6 .......................
7 ................t.....r
8 ....t..................
9 .......................
0 .......................
1 .......................
2 .......................
3 .......................
4 ..............f........
5 .......................
6 ......................r
7 .......................
8 h....r.................

Turn = 24.
  01234567890123456789012
0 ............f..........
1 .......................
2 .......................
3 .........t.............
4 .................f.....
5 ...fh..................
6 .......................
7 ................t......
8 ....t..................
9 .......................
0 ......................r
1 .......................
2 .......................
3 .......................
4 ..............f........
5 .......................
6 .......................
7 .......................
8 h.r...................r

Turn = 27.
  01234567890123456789012
0 ............f..........
1 .......................
2 .......................
3 .........t.............
4 .................f.....
5 ...fh..................
6 .......................
7 ................t......
8 ....t..................
9 .......................
0 .......................
1 .......................
2 .......................
3 ......................r
4 ..............f........
5 .......................
6 ......................r
7 .......................
8 rr.....................

Turn = 30.
  01234567890123456789012
0 ............f..........
1 .......................
2 .......................
3 .........t.............
4 .................f.....
5 ...fh..................
6 .......................
7 ................t......
8 ....t..................
9 .......................
0 .......................
1 .......................
2 .......................
3 .......................
4 ..............f......r.
5 .r...................r.
6 .......................
7 .......................
8 r......................

Turn = 33.
  01234567890123456789012
0 ............f..........
1 .......................
2 .......................
3 .........t.............
4 .................f.....
5 ...fh..................
6 .......................
7 ................t......
8 ....t..................
9 .......................
0 .......................
1 .......................
2 .r.....................
3 .......................
4 ..............f...r....
5 r.................r....
6 .......................
7 .......................
8 .......................

*** Darwin 20x15 ***
Turn = 0.
  012345678901234
0 ......t...fht..
1 ht.....f.......
2 ..hf......r....
3 .......r....f..
4 ft..f.t.r..f...
5 f..t.f...h.....
6 t.h...........t
7 .....t...h.....
8 .........r..h..
9 .......th..t.t.
0 ..th.rt.t......
1 .fh.t......r...
2 ..rt.ft.f..fh.t
3 .tr.t......t...
4 ............h..
5 ........f.r..r.
6 .tr.....th...f.
7 .rr...........t
8 .........t.t...
9 .r..h.f........

Turn = 1.
  012345678901234
0 ......t...fht..
1 ht.....f.......
2 ...f.....r.....
3 ..h.....r...f..
4 ft..f.tt...f...
5 f..t.f.........
6 t........h....t
7 ..h..t..h......
8 ..........rh...
9 .......tt..t.t.
0 ..ttt.t.t......
1 .fr.t.....r.h..
2 ..rt.tt.f..t..t
3 .rr.t......t...
4 .............h.
5 ........f...r..
6 .rr.....thr..f.
7 .r.r..........t
8 .r..h....t.t...
9 ......f........

Turn = 2.
  012345678901234
0 ......t...ftt..
1 tt.....f.......
2 ...f....r......
3 ........r...f..
4 fth.f.tt...f...
5 t..t.f.........
6 t.............t
7 .....t.h.h.....
8 ..h.......rr...
9 .......tt..t.t.
0 ..ttt.t.t...h..
1 .rr.t....r.....
2 ..tt.tt.f..t..t
3 .rr.t......t...
4 ..............h
5 ........f..r...
6 rr......th...f.
7 .rr.r.....r...t
8 ....h....t.t...
9 ......f........

Turn = 3.
  012345678901234
0 ......t...ttt..
1 tt.....f.......
2 ...f...r.......
3 .......r....f..
4 tt..f.tt...f...
5 t.ht.f.........
6 t.............t
7 .....th....r...
8 .........hr....
9 ..t....tt..tht.
0 .rttt.t.t......
1 .r..t...r......
2 ..rt.tt.f..t..t
3 ..r.t......t...
4 .r............h
5 ........f.r....
6 rr......tt...f.
7 .r.rhr........t
8 .........ttt...
9 ......f........

Turn = 4.
  012345678901234
0 ......t...ttt..
1 tt.....f.......
2 ...f..r........
3 ......r.....f..
4 tt..f.tt...f...
5 t..t.f.........
6 t.h........r..t
7 .....th...r....
8 ............h..
9 .rt....tth.t.t.
0 ..ttt.t.t......
1 r.r.t..r.......
2 ..rt.tt.f..t..t
3 ....t......t...
4 ..............h
5 .r......fr.....
6 .r..r...tt...f.
7 r.rr..r.......t
8 .........ttt...
9 ......f........

Turn = 5.
  012345678901234
0 ......t...ttt..
1 tt.....f.......
2 ...f.r.........
3 .....r......f..
4 tt..f.tt...f...
5 t..t.f.....r...
6 t.........r...t
7 ..h..th.....h..
8 .r.............
9 ..t....ttt.t.t.
0 ..rtt.t.t......
1 r.r.t.t........
2 ..rt.tt.f..t..t
3 ....t......t...
4 ..............h
5 .r..r...tr.....
6 r.......tt...f.
7 ..r.r..r......t
8 r........ttt...
9 ......f........

Turn = 6.
  012345678901234
0 ......t...ttt..
1 tt.....f.......
2 ...fr..........
3 ....r.......f..
4 tt..f.tt...r...
5 t..t.f....rr...
6 t...........h.t
7 .r...tt........
8 ..t............
9 ..t....ttt.t.t.
0 r.rtt.t.t......
1 ..r.t.t........
2 .r.t.tt.f..t..t
3 ....t......t...
4 ....r.........h
5 r.......tt.....
6 r.......tt...f.
7 .....r..r.....t
8 ..r......ttt...
9 r.....f........

Turn = 7.
  012345678901234
0 ......t...ttt..
1 tt.....f.......
2 ...rr..........
3 ...r.......rf..
4 tt..f.tt..rr...
5 t..t.f......h..
6 tr............t
7 .....tt........
8 ..t............
9 r.tr...ttt.t.t.
0 ..r.t.t.t......
1 .r..t.t........
2 r..t.tt.f..t..t
3 ....r......t...
4 ....r.........h
5 r.......tt.....
6 ........tt...f.
7 r.....r..t....t
8 .........ttt...
9 r.r...f........

Turn = 8.
  012345678901234
0 ......t...ttt..
1 tt.....f.......
2 ..rr.......r...
3 ..r.......rrf..
4 tt..f.tt....h..
5 tr.t.f.........
6 t.............t
7 .....tt........
8 r.tr...........
9 ..t....ttt.t.t.
0 ...rt.t.t......
1 r...t.t........
2 r..t.tt.f..t..t
3 ...rr......t...
4 ..............h
5 ........tt.....
6 r.......tt...f.
7 .......r.t....t
8 r........ttt...
9 .rr...f........

Turn = 9.
  012345678901234
0 ......t...ttt..
1 tt.....f...r...
2 .rr.......rr...
3 .r..........f..
4 tt..f.tt....h..
5 tt.t.f.........
6 t.............t
7 r..r.tt........
8 ..t............
9 ..t.r..ttt.t.t.
0 ...r..t.t......
1 r...t.t........
2 r..trtt.f..t..t
3 ..r........t...
4 ..............h
5 ........tt.....
6 ........tt...f.
7 r.......rt....t
8 .........ttt...
9 rr.r..f........

Turn = 10.
  012345678901234
0 ......t...trt..
1 tt.....f..rr...
2 rr.........r...
3 r...........f..
4 tt..f.tt....h..
5 tt.t.f.........
6 r..r..........t
7 r....tt........
8 ..t.r..........
9 ..t....ttt.t.t.
0 r...t.t.t......
1 ....r.t........
2 .r.trtt.f..t..t
3 .r.........t...
4 ..............h
5 ........tt.....
6 ........tt...f.
7 ........rr....t
8 rr.......ttt...
9 r...r.f........

Turn = 11.
  012345678901234
0 ......t...rrt..
1 tt.....f..rr...
2 rr........r....
3 r...........f..
4 tt..f.tt....h..
5 rt.r.f.........
6 r..r..........t
7 r...rtt........
8 ..t............
9 r.t....ttt.t.t.
0 ....r.t.t......
1 ....r.t........
2 ..ttrtt.f..t..t
3 r..........t...
4 ..............h
5 ........tt.....
6 ........tt...f.
7 .r......rr....t
8 r........rrt...
9 r....rf........

Turn = 12.
  012345678901234
0 ......t...rrr..
1 tt.....f..rr...
2 tt.......r.....
3 r...........f..
4 rt..f.tt....h..
5 rtrr.f.........
6 r...r.........t
7 r....tt........
8 r.t............
9 ..t.r..ttt.t.t.
0 ....r.t.t......
1 ......t........
2 ..trttt.f..t..t
3 r..........t...
4 ..............h
5 ........tt.....
6 .r......tt...f.
7 .........rr...t
8 r.....r.rr.t...
9 r....r.........

Turn = 13.
  012345678901234
0 ......t..r.r...
1 tt.....f..rrr..
2 tt......r......
3 r...........f..
4 rr.rf.tt....h..
5 rrr.rf.........
6 r.............t
7 r....tt........
8 r.t.r..........
9 ..t.r..ttt.t.t.
0 ......t.t......
1 ......t........
2 ..t.ttt.f..t..t
3 ...r.......t...
4 r.............h
5 .r......tt.....
6 ........tt...f.
7 r.....r..rt...t
8 .........r.t...
9 r.....r.r......

Turn = 14.
  012345678901234
0 ......t.r..r...
1 tt.....f...r...
2 tt.....r..r.r..
3 tr.r........f..
4 r...r.tt....h..
5 rr..rf.........
6 r.r...........t
7 .r..rtt........
8 .tt.r..........
9 ..t....ttt.t.t.
0 ......t.t......
1 ......t........
2 ..t.ttt.f..t..t
3 ...........t...
4 .r.r..........h
5 r.......tt.....
6 r.....r.tt...f.
7 .........rt...t
8 r........r.t...
9 .......rr......

Turn = 15.
  012345678901234
0 ......tr..r....
1 tt.....f....r..
2 tr.r..r.....r..
3 rr........r.hr.
4 r..rr.tt.......
5 r....f.........
6 rr..r.........t
7 .rr.rtt........
8 .tt............
9 ..t....ttt.t.t.
0 ......t.t......
1 ......t........
2 ..t.ttt.f..t..t
3 .r.........t...
4 ..............h
5 r..r..r.tt.....
6 r.......tt...f.
7 r........rt...t
8 .........r.t...
9 .......rr......

Turn = 16.
  012345678901234
0 ......rr.r.....
1 tt.r...f.....r.
2 tr...r......r..
3 rr..r.......r.r
4 r.r...tt..r....
5 r...rf.........
6 .r..r.........t
7 rrr..tt........
8 .rr............
9 .r.....ttt.t.t.
0 ......t.t......
1 ......t........
2 .rt.ttt.f..t..t
3 ...........t...
4 ......r.......h
5 .r......tt.....
6 rr.r....tt...f.
7 .........rt...t
8 .......rrr.t...
9 ...............

Turn = 17.
  012345678901234
0 ...r..rrr......
1 tt.....f......r
2 tr..r.......r..
3 rr..r......r..r
4 .rr.r.tt.......
5 ....rf....r....
6 rr............t
7 .rr..tt........
8 rr.............
9 r.r....ttt.t.t.
0 ......t.t......
1 .r....t........
2 ..t.ttt.f..t..t
3 ......r....t...
4 ..............h
5 r.r.....tt.....
6 ..r.....tt...f.
7 ...r...rrtt...t
8 .........t.t...
9 ...............

Turn = 18.
  012345678901234
0 ...r..rrr......
1 tt.....r......r
2 tr.r.........r.
3 rr..rr....r....
4 .r..r.tt......r
5 .rr..f.........
6 ..........r...t
7 rr.r.tt........
8 r..............
9 rr.....ttt.t.t.
0 .rr...t.t......
1 ......t........
2 ..t.ttr.f..t..t
3 ......r....t...
4 r.............h
5 ...r....tt.....
6 ...r...rrt...f.
7 ........rtt...t
8 ...r.....t.t...
9 ...............

Turn = 19.
  012345678901234
0 ..r...rr......r
1 tt....r.r......
2 trr.r.........r
3 rr..r.t..r.....
4 .r....tt.......
5 .r...f........t
6 ..r...........t
7 r...rtt...r....
8 rr.............
9 .r.....ttt.t.t.
0 rr....t.t......
1 ..r...t........
2 ..t.ttr.f..t..t
3 r.....r....t...
4 ..............h
5 ....r..rtt.....
6 ....r...rt...f.
7 ........rtt...t
8 .........t.t...
9 ...r...........

Turn = 20.
  012345678901234
0 .r....r.r.....r
1 tt..rr.........
2 ttr.r...r.....r
3 tt....t.r......
4 ..r...tt.......
5 ..r..f........t
6 .....r........t
7 r.r.r.t........
8 .r........r....
9 rr.....ttt.t.t.
0 r.....t.t......
1 r.r...t........
2 r..rttt.f..t..t
3 ......t....t...
4 .......r......h
5 .....r..tt.....
6 .....r..rt...f.
7 ........rtt...t
8 .........t.t...
9 ...r...........

Turn = 21.
  012345678901234
0 r...rr...r...r.
1 tt..r..........
2 ttr.r...r......
3 tt....tr......r
4 ...r..tt.......
5 ...r.r........t
6 .....r........t
7 .....rt........
8 rrr............
9 rr.....tttrt.t.
0 r.....t.t......
1 r.....t........
2 r.rrttt.f..t..t
3 ......tr...t...
4 ..............h
5 ......r.tt.....
6 ......r.tt...f.
7 ........ttt...t
8 .........t.t...
9 ..r............

Turn = 22.
  012345678901234
0 r...rr....r.r..
1 tt.r...........
2 ttt..r...r.....
3 tt....rr.......
4 ....rrtt......t
5 ....rr........t
6 ..............t
7 .....rr........
8 rr.............
9 rrr....ttttt.t.
0 r.....t.t......
1 r...r.t........
2 .r.r.ttrf..t..t
3 ..r...t....t...
4 ..............h
5 .......rtt.....
6 .......rtt...f.
7 ........ttt...t
8 .........t.t...
9 .r.............

Turn = 23.
  012345678901234
0 t...rr.....rr..
1 ttr............
2 ttt...r...r....
3 tt...rrr.......
4 ....rrr.r.....t
5 ....r.........t
6 ......r.......t
7 .....r.........
8 r.r............
9 r......ttttt.t.
0 rrr.r.t.t......
1 r.....tr.......
2 ..r.rtt.f..t..t
3 ......t....t...
4 ..r...........h
5 .......rrr.....
6 .......rr.r..f.
7 ........ttt...t
8 .........t.t...
9 r..............

Turn = 24.
  012345678901234
0 t.....r....r...
1 ttr.r.......r..
2 ttt..r.r...r...
3 tt...rr........
4 ....r.rr.r....t
5 ....r.r.......t
6 ..............t
7 r..............
8 ...r.r.........
9 r...r..ttttt.t.
0 r.....trt......
1 rrr...t........
2 ...rrrt.f..t..t
3 ......t....t...
4 ..............h
5 ..r....rr......
6 .......rrt.r.f.
7 ........ttt...t
8 .........t.t...
9 r..............

Turn = 25.
  012345678901234
0 t......r.......
1 ttt..r.....r...
2 ttt.rr..r..rr..
3 tt....rr.......
4 ...r..r...r...t
5 .....r.r......t
6 r.............t
7 ...............
8 ....r..........
9 r...rr.ttttt.t.
0 r.....ttt......
1 ......r........
2 rrrrrrt.f..t..t
3 ......t....t...
4 ..............h
5 .......rr......
6 ..r.....tt..rf.
7 .......rttt...t
8 .........t.t...
9 r..............

Turn = 26.
  012345678901234
0 t....r..r......
1 ttt..r.....r...
2 ttt...r..r.r...
3 tt..r.r.r...r..
4 ..r........r..t
5 r.....r.......t
6 .......r......t
7 ...............
8 .....r.........
9 r..r...ttttt.t.
0 r....rttt......
1 ...rr.rr.......
2 .....r..f..t..t
3 rrr...t....t...
4 ..............h
5 .......r.r...r.
6 ........tt..r..
7 ..r.....ttt...t
8 .......r.t.t...
9 r..............

*** Darwin 17x10 ***
Turn = 0.
  0123456789
0 .f...t....
1 .h..ft..h.
2 f...tf.r.h
3 ..t..r....
4 ...f.....r
5 ......r.fr
6 ......r...
7 r..r.r..r.
8 f.....t...
9 ..........
0 ..f..f....
1 ..f....r..
2 .hh....h..
3 hh.....h..
4 ......t.t.
5 ..hrf.....
6 .tr.....rr

Turn = 7.
  0123456789
0 .f...t.r.r
1 ....tt...r
2 .r..tt.r..
3 .rt..t....
4 ...fr.....
5 .....r....
6 .h........
7 rr........
8 rr....t...
9 rh.......r
0 ..f..f..rr
1 .rr.......
2 .......r..
3 ...r.....r
4 ......tt.r
5 ..t.....r.
6 .ttt.....r

Turn = 14.
  0123456789
0 .rrr.tt...
1 r...ttt...
2 ...rrr....
3 r.....r...
4 r.........
5 r.........
6 r...r.....
7 .r...r..r.
8 ...r.rr...
9 .....r....
0 ....r.....
1 .....r....
2 r...r....r
3 r....r...r
4 ......ttt.
5 ..tt......
6 rttt.r...r

*** Darwin 19x19 ***
Turn = 0.
  0123456789012345678
0 ....t...........f..
1 ........r...r..rtt.
2 ..tt..f........r...
3 .........f.........
4 ..t.....hh....f.f..
5 ...t.....h.r..r..t.
6 r.tfh.t...tf.......
7 .h.........r..f...h
8 .......ff.h...h....
9 ...t.t....t.r....h.
0 .....f..........f..
1 ..t...t...........r
2 ................th.
3 .t...fr.f..........
4 f......t.....t.f.r.
5 ....ff............t
6 ................h.h
7 h..............t..h
8 ......tr....f.f..t.

Turn = 4.
  0123456789012345678
0 ....t...h.......f..
1 ....r......r....tt.
2 r.tt..f.........t..
3 .........f.........
4 ..t.........r.f.f..
5 ...t.h.......r...t.
6 ..tt.tt...t..rr....
7 h......r.h.r...r..h
8 .......ff.t........
9 ...t.t....t..h.....
0 .....t..........f..
1 ..t...t............
2 ................tt.
3 .t...f..f...r......
4 f......t.....rrr..r
5 ....ff............r
6 ...............t..t
7 h.....r........t..h
8 ...rr.......f.f..t.

*** Darwin 15x8 ***
Turn = 0.
  01234567
0 ....h..f
1 hf..fh.r
2 frtrh..t
3 th...t..
4 .h..t.hf
5 ...rt...
6 h.h.....
7 ..t..f..
8 frhhr.h.
9 .htffh..
0 ...r.tfr
1 hhh.h.t.
2 ...t.h.t
3 .frtr.hh
4 frf.h.t.

Turn = 10.
  01234567
0 rr.rr.rt
1 ..r.r..r
2 rr....rr
3 r.rr.rrr
4 .r..h...
5 ....t...
6 ....t...
7 ..t..f..
8 ..ttt..r
9 rrttt...
0 rr..tttr
1 r.r.tttt
2 .r...trr
3 r.r..rr.
4 .rrrrr.r

Turn = 20.
  01234567
0 rr..r.rr
1 .......r
2 ....r..r
3 rr.....r
4 .r.rr...
5 ...rtr..
6 r..rt...
7 ....tt..
8 r.rttt.t
9 rrrtt..t
0 .rr.tttt
1 ..r.trrt
2 r..rr.tr
3 ..rrrrrr
4 ..rrr.r.

Turn = 30.
  01234567
0 r.r....r
1 rr..r...
2 rr......
3 r.....rr
4 .....r..
5 r...r..r
6 .......r
7 rr...rrr
8 rrr.rt.t
9 rr..tt.t
0 r.rtrttt
1 rrr..ttt
2 rrr.trrt
3 r.r..rr.
4 .rrrr...

Turn = 40.
  01234567
0 r...rr.r
1 rrrr....
2 ....r..r
3 ......r.
4 rr..r..r
5 ......r.
6 ...r.r..
7 ..rr...r
8 .rrr.rrr
9 r.r.r.rr
0 rr..rr.t
1 rrrrrttt
2 r.rrrttt
3 r.r.r.tt
4 ...r.r.t

Turn = 50.
  01234567
0 ...rrr..
1 rrr..r.r
2 .r....rr
3 rr.....r
4 r...r...
5 .r......
6 rr.r....
7 .r......
8 r.r...r.
9 .rrr.r.r
0 rrrr.rrr
1 rr.r.rrr
2 rrr.rrrr
3 rrr.r.rr
4 rrr..r.r

Turn = 60.
  01234567
0 .r.r....
1 rr...r..
2 r.....r.
3 r...rrrr
4 ....rr..
5 .....r..
6 r.....r.
7 rr.rr..r
8 .r.rrr..
9 r.rrr.rr
0 r.r.rrr.
1 rrr..r..
2 r.r.rrrr
3 rrrrr.r.
4 rrrrr.rr

*** Darwin 24x16 ***
Turn = 0.
  0123456789012345
0 .....r....r.....
1 .t..............
2 .h..t....r......
3 ...r......r.....
4 ...........h....
5 ...h........r...
6 ..ht...........r
7 ..r.............
8 ......t.........
9 ..f.t....ht.....
0 ................
1 .......f..h.....
2 .........f.f....
3 ........tr....th
4 r....t..........
5 ................
6 .t...........h..
7 ......f.r.......
8 ...t...........t
9 ......f.........
0 t.r...t.........
1 .....h...r.r....
2 .r.............t
3 ...........r.t..

Turn = 2.
  0123456789012345
0 .......r........
1 .t..............
2 .t..t..r..rh....
3 ................
4 ...r............
5 ...r......rr....
6 h...r...........
7 r...............
8 ......t........r
9 ..f.t....ht.....
0 ................
1 .......f........
2 .........fhf....
3 r.......t..r..t.
4 .....t..........
5 ........r......h
6 .t.........h....
7 ......f.........
8 ...t...........t
9 ......t..r.r....
0 t.....t.........
1 ...........r....
2 r.r............t
3 .....h.......t..

Turn = 4.
  0123456789012345
0 .........r.h....
1 .t..............
2 .t..tr..........
3 ................
4 ..r.......r.....
5 ................
6 r.....r.........
7 r..r......rr....
8 ......t.........
9 ..f.t....tt.....
0 ...............r
1 r......f........
2 .........f.f....
3 ........r....rt.
4 .....t..r.h.....
5 ................
6 .t.......h......
7 ......f..r.r...h
8 ...t...........t
9 ......t....r....
0 r.....t.........
1 r...............
2 ...............t
3 ..r..h.......t..

Turn = 6.
  0123456789012345
0 ..........rr....
1 .t..............
2 .t.rr...........
3 ................
4 r...............
5 ................
6 r.......r.r.....
7 r...............
8 ......t...r.....
9 r.frt....t.r....
0 ..........r.....
1 .......f......r.
2 .........f.f...r
3 .......r......r.
4 .....t...r......
5 .........r.r....
6 .t.....h..h.....
7 ......f....r...t
8 r..t...........t
9 r.....t.........
0 ......t.........
1 ................
2 ...............t
3 r....h.......t..

Turn = 8.
  0123456789012345
0 ...........r....
1 .t........r.....
2 .rrr............
3 ................
4 ................
5 r...............
6 ..........r.....
7 r...............
8 r.....t...r.....
9 r.f.t....t....r.
0 ..........r.....
1 ...r...f...r....
2 .........frf..r.
3 .....t...r.r....
4 .....t....r....r
5 ...........r....
6 rt...h..........
7 r.....f........t
8 ...t......h....t
9 ......t.........
0 ......t.........
1 ................
2 ...............t
3 r....h.......t..

Turn = 10.
  0123456789012345
0 .............r..
1 .rr.............
2 .r..............
3 ..........r.....
4 ...r............
5 ................
6 r...........r...
7 r.............r.
8 r.....t.........
9 .rf.t....tt.....
0 ..............r.
1 .......f.rrr....
2 .........r.r....
3 ...r.t...rrr....
4 r....t...r......
5 r...............
6 .t.h...........r
7 ......f........t
8 ...t...........t
9 ......t.........
0 ......t...h.....
1 ................
2 ...............t
3 ..r..h.......t..

Turn = 12.
  0123456789012345
0 ..r............r
1 r...............
2 ..r.............
3 ................
4 ................
5 ..........r...r.
6 ..rr.........r..
7 r...............
8 ..r...t.......r.
9 ..rrr....rt.....
0 .........r......
1 .......frr.r....
2 r......r.rr.....
3 r....t..........
4 .....t.r.r......
5 ...r............
6 .th............r
7 ......f........r
8 ...t............
9 ......t........r
0 ......t.........
1 ................
2 ..........h....t
3 ....rh.......t..

Turn = 14.
  0123456789012345
0 r..............r
1 r...............
2 ....r...........
3 ..............r.
4 .............r..
5 r.r.............
6 ..............r.
7 ...r......r.....
8 ..r.r.t.........
9 .........rrr....
0 r..r.....rr.....
1 r...r..r........
2 .....r.rrr......
3 .....t..........
4 .....rr.........
5 ................
6 .tt......r...r..
7 ...r..f.........
8 ...t............
9 ......t........r
0 ......t.........
1 ...............r
2 ...............t
3 ....r.r...h..t..

Turn = 16.
  0123456789012345
0 ................
1 r.r...........rr
2 ......r......r..
3 r.r.............
4 ..............r.
5 ................
6 ................
7 .r....r....r....
8 r..r.r....r.....
9 r........r.r....
0 .........r......
1 .....r...r......
2 ...r.t..........
3 ....rt..........
4 ....r..rrr......
5 ................
6 .tt..r.....r....
7 ......f.........
8 ...r.....r......
9 ......t.........
0 ...r..t........r
1 ...............r
2 ...............r
3 ...r....r.h..t..

Turn = 18.
  0123456789012345
0 .............rr.
1 ..r.r...........
2 r.......r.....r.
3 r..............r
4 ................
5 ......r....r....
6 ................
7 r...............
8 r....r.r....r...
9 r..........r.r..
0 .......r........
1 ...r............
2 .....t..........
3 ...rrr...r......
4 ..r.............
5 ................
6 .tt....rrrr.....
7 ......f.........
8 .....r..........
9 ......t.........
0 ...r..t..r......
1 .............r.r
2 ...r.........r..
3 .r.......rr..t..

Turn = 20.
  0123456789012345
0 ..r.........r.rr
1 r.....r.........
2 ..r.......r.....
3 ......r....r....
4 ................
5 ...............r
6 ................
7 .r..............
8 r......r.r....r.
9 .............r.r
0 .....r..........
1 rr..............
2 ....rr..........
3 .....r..........
4 r..r............
5 .........r......
6 .tt.............
7 ......f.........
8 .......rrrr.....
9 ......t.........
0 .....rt.........
1 ...........r....
2 ...r.....r.r....
3 r..r.....r..rt.r

Turn = 22.
  0123456789012345
0 rr........r..r..
1 ......r.r.......
2 ....r.......r..r
3 ............r...
4 ................
5 ................
6 r...............
7 ...r...........r
8 .........r.r...r
9 ..............rr
0 ...rr...........
1 r...............
2 ...r............
3 r..r............
4 ................
5 r...............
6 .ttr............
7 ......f..r......
8 ................
9 ......t.........
0 ......trrrr.....
1 r........r......
2 ..r..r..rr...r..
3 .....r.r....r..r

Turn = 24.
  0123456789012345
0 ......r.r..r....
1 r.........r.....
2 .r....r.......r.
3 ..............r.
4 r..............r
5 ................
6 ................
7 .....r........r.
8 ....r......r.rr.
9 r...............
0 .r.............r
1 ..............r.
2 .r..............
3 .r..............
4 ................
5 r...............
6 .tt.............
7 r.....f.........
8 ...r............
9 r.....t..r......
0 ......t..rr..r..
1 .......rr.......
2 r...r.rr..r.....
3 ......rr...r...r

Turn = 26.
  0123456789012345
0 .......rrr......
1 ............r...
2 r.......r......r
3 r..............r
4 .r..............
5 ................
6 ....r..........r
7 r......r....r.r.
8 ............r...
9 .............r..
0 r...............
1 ................
2 r..............r
3 r.............r.
4 ................
5 ................
6 ttt.............
7 ......f.........
8 r............r..
9 r.....t...r.....
0 ...r..t.r...r...
1 r....r....r....r
2 ..r.rr.r........
3 .....r....rr....

Turn = 28.
  0123456789012345
0 ......rr.......r
1 ..............r.
2 .......r..r.....
3 r.r.............
4 ....r...........
5 r.............rr
6 .r..............
7 .........rr.....
8 r..............r
9 ................
0 ............r...
1 .............r..
2 .r..............
3 ................
4 ...............r
5 t.............r.
6 ttt..........r..
7 r.....f.........
8 ..r.............
9 r.....t.....r..r
0 ......rr......r.
1 ...rr..r....r...
2 r.rr......r.....
3 ...r.......r....

Turn = 30.
  0123456789012345
0 ....rr.........r
1 ...............r
2 ....r.......r...
3 ...r..........r.
4 r......r........
5 .r..............
6 r.........r.....
7 ...............r
8 .r.......r......
9 ................
0 ...............r
1 ................
2 ...r........r...
3 .............r..
4 .............r..
5 t...............
6 rtt............r
7 r.....f.......rr
8 r...r...........
9 ....r.r.......r.
0 ......r...r....r
1 r....r.r......r.
2 rr.r............
3 .r.......r......

Turn = 32.
  0123456789012345
0 ..rrr..........r
1 ..............r.
2 .............r..
3 ...............r
4 r.r.......r.....
5 ..rr............
6 .......r........
7 ................
8 ................
9 ...............r
0 .r.......r......
1 ................
2 .....r.........r
3 ............r...
4 ............r.r.
5 r...............
6 rtt...........r.
7 r...r.f.......r.
8 ......r...r.....
9 r....r........rr
0 r......r......r.
1 r..r............
2 ...............r
3 rr.r...rr.......

Turn = 34.
  0123456789012345
0 rr.r..........rr
1 ................
2 r.........r.....
3 ................
4 ....r........r..
5 ...............r
6 ................
7 ..rr............
8 .......r........
9 ................
0 ................
1 ...............r
2 .r.....r.r......
3 r.........r....r
4 ...............r
5 r...r...........
6 rtt.......r.rr..
7 ......f.....r..r
8 ........r.......
9 r..r...........r
0 r........r.....r
1 rr..............
2 ................
3 r.r..rr..r.....r

Turn = 36.
  0123456789012345
0 rrr.......r....r
1 r.............r.
2 ................
3 ................
4 ......r.........
5 ................
6 .............r..
7 ...............r
8 ................
9 ..rr............
0 .......r........
1 r...............
2 .........r.....r
3 r...r..........r
4 rr.......rr..r..
5 ..........r....r
6 .tt........r...r
7 ......f...r.....
8 ..........r....r
9 rrr.............
0 ..r........r....
1 r..............r
2 .....r.........r
3 r...r.r....r....

Turn = 38.
  0123456789012345
0 .r.......r......
1 rr..............
2 ..r............r
3 ..............r.
4 ........r.......
5 ................
6 ................
7 ................
8 .............r..
9 r..............r
0 ................
1 r.rrr...........
2 r......r...r.r..
3 .............rr.
4 ...........r....
5 .t........r..r..
6 .tt......rr..r.r
7 r.....f.r.......
8 .r..........r...
9 .r..............
0 ....rr.......r..
1 ...............r
2 r.............r.
3 .r....r.r....r..

Turn = 40.
  0123456789012345
0 rr.....r........
1 ................
2 ................
3 r...............
4 ..r.......r....r
5 ..............r.
6 ................
7 r...............
8 ................
9 r...r...........
0 r............r..
1 .............rrr
2 ............r...
3 ..rr............
4 .......r....rr.r
5 rt.........rr...
6 .tt........r....
7 .t....rr........
8 .....r...rr...r.
9 r...r...........
0 ...............r
1 r...............
2 ............r...
3 ...r....r.r...rr

Turn = 42.
  0123456789012345
0 r....r..........
1 ................
2 r...............
3 ................
4 ............r...
5 r...............
6 r.r............r
7 r...r.........r.
8 r...............
9 ..............r.
0 ............r...
1 ..............r.
2 ...............r
3 r...........r..r
4 .............r..
5 .trr.......rr...
6 .tt..r.r.r...r..
7 .t..rr..........
8 ...............r
9 ......r........r
0 r........rr.....
1 r...............
2 ..........r.....
3 .....r....r.r.rr

Turn = 44.
  0123456789012345
0 ...r............
1 ................
2 r...............
3 ................
4 r.............r.
5 .r..r...........
6 r...............
7 .r..............
8 .rr...........rr
9 .............r..
0 ..........r.....
1 r..............r
2 ...............r
3 .............rr.
4 .....r.........r
5 .tt.r...........
6 .ttt...r.......r
7 .t.r.......rr..r
8 .......r.....r..
9 ................
0 ................
1 r.....r..r.....r
2 ........r.r.....
3 r......r....rrr.

Turn = 46.
  0123456789012345
0 .r..............
1 ................
2 ................
3 ....r...........
4 r..............r
5 ...r............
6 r.r.............
7 .r.r............
8 ............r...
9 r..........r....
0 ..r.....r......r
1 ..............r.
2 .....r.......r..
3 ....r..........r
4 ...............r
5 .tt..........r.r
6 .ttt.r.........r
7 .rr.............
8 ................
9 ...........rr..r
0 .......r.....r..
1 .......r......r.
2 r.....r.........
3 r.....r..rr.r.r.

Turn = 48.
  0123456789012345
0 r...............
1 ....r...........
2 ................
3 ................
4 ................
5 .r...r..........
6 r...r..........r
7 r....r..........
8 r.........r.....
9 .........r......
0 .....rr.........
1 ....r.......r...
2 ..r........r...r
3 ...............r
4 .............r..
5 .tt..........r..
6 .ttrr........r..
7 ..t..........r.r
8 .r..............
9 ..............r.
0 ........r.......
1 .....r.....rr...
2 ..r.r....r...r..
3 .r.....r...rr..r

Turn = 50.
  0123456789012345
0 .r..r...........
1 ................
2 ................
3 .r..............
4 ................
5 .......r........
6 .r....r.........
7 r......r........
8 .....r..r......r
9 r...r..r........
0 ....r...........
1 ..........r.....
2 .........r.....r
3 ................
4 ..r........r...r
5 .tt.r......r...r
6 .ttt.......r....
7 ..t...........r.
8 ................
9 .............r..
0 .r.......rr.....
1 ...r...........r
2 ...r.......rr...
3 ...rr....rr.rr..

Turn = 52.
  0123456789012345
0 ..rr............
1 .r..............
2 ................
3 ................
4 ................
5 .........r......
6 ...r.r..r.......
7 ..r.r....r......
8 ......r.........
9 .....r..........
0 ..r............r
1 r.......r.......
2 .......r........
3 ....r..........r
4 ..r......r.....r
5 .tt......r....r.
6 .tt..r...r....r.
7 ..t.............
8 .........r......
9 ...............r
0 ............r...
1 .r...........r..
2 .rrr.....rr...r.
3 ...r.....r..rr..

Turn = 54.
  0123456789012345
0 .rr.............
1 ................
2 ..r.............
3 ................
4 .....r..........
5 ...........r....
6 .....r....r.....
7 ...r.r.....r....
8 ....r...........
9 ...r............
0 r...............
1 ....r.r.........
2 .....r.........r
3 r..............r
4 ....r..r........
5 .tt....r....r...
6 .tt....rrr..r..r
7 ..t............r
8 ................
9 ................
0 ...r......r...r.
1 r...............
2 r......r....r..r
3 .rr........r.r.r

Turn = 56.
  0123456789012345
0 rr..............
1 ................
2 .....r..........
3 ................
4 ..r.............
5 .............r..
6 .......r....r...
7 ....r..r.....r..
8 ................
9 .r.rr...........
0 ................
1 r...r...........
2 ...r..........r.
3 .............r..
4 .....rr..r......
5 rtt..r....r.....
6 .tt.......r...r.
7 ..t....r......r.
8 ...r....r.r.....
9 ................
0 ............r..r
1 .r.............r
2 .....r..........
3 rr.r........r.rr

Turn = 58.
  0123456789012345
0 .....r..........
1 ................
2 rr..............
3 ................
4 ................
5 ....r..........r
6 ..r......r....r.
7 ....r....r.....r
8 ................
9 r...............
0 ...r............
1 ..r.............
2 .r...rr..r..r...
3 r..........r....
4 ................
5 .ttr....r.......
6 .ttr....r.r.r...
7 r.t.........r...
8 ............r...
9 .......r........
0 ........r.....r.
1 ...r.........r..
2 ...r............
3 rr...r.......rrr

*** Darwin 15x23 ***
Turn = 0.
  01234567890123456789012
0 ....r......f.........h.
1 .............f.....r...
2 .........t......t......
3 ..h...........f.f..t..h
4 .r.tt.t..h.rr...f......
5 .f.h.rr....f.....r.....
6 r.......h.....r........
7 .......fft....r..f..r..
8 ..............r.rr.f...
9 .f.r..h.....t.r........
0 .....f..hh....r........
1 .....t.ft......h.......
2 .......frr.............
3 ....r.......f.r.......h
4 ..r.......r.ff......f..

Turn = 6.
  01234567890123456789012
0 .........r.f.r........h
1 .............rr........
2 .........t......t......
3 .......r.......rt..r...
4 ..ttt.t......h.rr..r...
5 ..tt............r......
6 ......r.r...h........h.
7 .....r.r.t.............
8 .r.r....rr.........f...
9 ..r....r.r.rr..........
0 .....t..t...h....rr....
1 ....rt.ttr..r..........
2 ...r.tt......r.r.......
3 ...........r.r..rr.....
4 ............r.....r.f.h

Turn = 12.
  01234567890123456789012
0 .....r.........r.rr.r.h
1 .......................
2 .........t..r...r......
3 ..........rr...........
4 ..ttt.tt...r...r.r.r..r
5 ..tt......r............
6 ...rr.......r.....h....
7 ....r.r......r.........
8 .....r.............f...
9 .....r.........r.......
0 r.r..r.tttt.......r....
1 .....rrr...........r...
2 .....rt......r.......h.
3 ....r.........r......rr
4 .r.....rrr..r.r.rrr....

Turn = 18.
  01234567890123456789012
0 r...r......r.r........r
1 ....r.......r........rr
2 ......rr...............
3 ..............r.r....r.
4 ..tt..tt...............
5 ..ttr......r.........rr
6 .......rr...rr....r...r
7 rr................r...r
8 rr...............rrf...
9 r.........r............
0 ........t.t...........r
1 .....trttr..r..........
2 rr...................rr
3 ......r.r..r...........
4 .r....r.rrr.........r.r

Turn = 24.
  01234567890123456789012
0 .......rr..rrr....r....
1 r.....r.rr.....r.r....r
2 rr...............rr...r
3 .....................rr
4 .rtt..tt............r.r
5 ..ttt.......r..........
6 r.....r...............r
7 ......r....r......r....
8 ...................f...
9 r....r...............rr
0 r......tt..............
1 .....t.tt...r........r.
2 r.......rr.............
3 ....r...rr...r...r.....
4 ...r.rr.r...r.....r....

Turn = 30.
  01234567890123456789012
0 .r.....r...rrrr....rr.r
1 r..........rrr....r..rr
2 r.r.......rr......r....
3 ..................r...r
4 ..tt..tt...............
5 .rttt..................
6 r.......r..............
7 r........r..rr.........
8 ...................f...
9 .....rrt...............
0 ....rrrtt......r.......
1 .......tt.......r.r....
2 r.......tr.............
3 r.r.....rr.........r..r
4 ...r....r.......r..r...

Turn = 36.
  01234567890123456789012
0 ..rr..r......r..r......
1 ....r.rr.r..r.rr..r....
2 ............r.....r....
3 .r.....r...............
4 .ttt..tr.......r.......
5 ..ttrrrr......rrr......
6 ....rr.....r........r..
7 ..........r..........r.
8 ...........r.......f...
9 ........t..............
0 .......tt........r.....
1 .r...r.trr............r
2 ....r...rr..r.........r
3 r......rrr...r.........
4 ....r...r...........rr.

Turn = 42.
  01234567890123456789012
0 rrr.r.r.....r..........
1 ..rrrrr........r.......
2 ......r.....r..........
3 ...t...........r..r....
4 .ttttt......rr...rr..r.
5 r.tttr.....rr..........
6 ....r.................r
7 .r..r.................r
8 ...................f...
9 ........t..............
0 .......tt..............
1 .......tt.r..rr........
2 .......t..rrr.......r.r
3 r..r...t...r.........r.
4 ...r...tr........rr....

Turn = 48.
  01234567890123456789012
0 r.r.......r.....r......
1 rr.....r.............r.
2 rrr...r.r............rr
3 rrrr...................
4 r.rtt..r........r....r.
5 ..rttt.r..........r..r.
6 ........r...r.........r
7 r......................
8 r..................f...
9 ........t...r..r.......
0 .......tt.r..r.........
1 r......rr............r.
2 .......rtt.............
3 .r....rrrr.........r...
4 .......r...rrr.......r.

Turn = 54.
  01234567890123456789012
0 rr.r........r.r.r.r...r
1 r......r..............r
2 ....r.r...............r
3 ..rr.rr................
4 r.rrrr.......r..r......
5 rr.r........r..r.....r.
6 r...r.........r........
7 r.....rr...........r...
8 ....rr............rr...
9 ..r.....t.........r....
0 .......ttt.rr..........
1 .......tttr............
2 r......tt..............
3 ..r....................
4 .r...r.r......rr...r...

Turn = 60.
  01234567890123456789012
0 ..r...r..r......r....rr
1 .....rr......r.r....r..
2 .rr.......r.r......r...
3 ...r.....r..r.......r..
4 ...........rr....r.....
5 .r.rr..r.r.............
6 ...r....r...........r..
7 r......................
8 rr..........r.rrr.....r
9 ..r.r..tt.....r.......r
0 r......ttt.............
1 ...r...tttt............
2 ....r..tt..............
3 .r.r...................
4 .r.rr..........r.....r.

Turn = 66.
  01234567890123456789012
0 rr........r.r..r......r
1 .r..r....r......rr.....
2 ..r..r.........r.......
3 r.....r.....r....r....r
4 ......................r
5 ...r.........r.......r.
6 .........r.............
7 r.....r........r.......
8 .r..r..ttr......r..r...
9 ......rrtt..........r..
0 r...r..rtt.......rr...r
1 .......tttt............
2 .rr....tt..............
3 rr............r........
4 rr..r....r.....rr......

Turn = 72.
  01234567890123456789012
0 r...r.r.....r...r....r.
1 r..rr.r..............rr
2 .......................
3 ......r.........r......
4 ................r......
5 r.r...................r
6 .rrr...........r.......
7 .r...rrrr...........r.r
8 .....rrrr.r............
9 ......rrr.r.r....r.....
0 .......rr..............
1 ......rr.tt..r.......r.
2 .......rt..............
3 ..r..r.r.......rr..r...
4 ...r.r..r...r...rr.rr..

Turn = 78.
  01234567890123456789012
0 ..r...rrr.............r
1 .......rr..............
2 r......rr..............
3 r....rr.r.r............
4 .rr.....r.r...........r
5 ......rr...............
6 r.....r.r...........rr.
7 ...r..r.r.....r.......r
8 rrr.............r......
9 r....r..........r.rr...
0 .r..............r......
1 .........tt.....r.....r
2 .........rrr...........
3 ........rrrr.........rr
4 ........rr..r..rrrr...r

*** Darwin 13x18 ***
Turn = 0.
  012345678901234567
0 ..................
1 ....f.......t..hhf
2 ...............h..
3 r....r..t.........
4 ........r........f
5 ..f...............
6 ....tt.r.h...r....
7 ....f.............
8 .......t....t.....
9 ..................
0 ......t...........
1 ..f..........f....
2 h..rr.............

Turn = 3.
  012345678901234567
0 r....r............
1 ....f.......thh..f
2 ..................
3 .......rth...r....
4 ...........r.....f
5 ..f............h..
6 ....tt............
7 ....t.............
8 .......t....t.....
9 ..................
0 ......t...........
1 ..f..........f....
2 h...r..r..........

Turn = 6.
  012345678901234567
0 ..r....r..........
1 ....f..r....trh..f
2 .............r....
3 ........tt........
4 ..............r..f
5 ..f...............
6 ....tt............
7 ....t.............
8 .......t....t..h..
9 ..................
0 ......t...........
1 ..f..........f....
2 h......r..r.......

Turn = 9.
  012345678901234567
0 .....r....r.......
1 ....f.....r.ttt..f
2 .............t....
3 ........tt........
4 ................r.
5 ..f..............r
6 ....tt............
7 ....t.............
8 .......t....t.....
9 ..................
0 ......t...........
1 ..f..........f.h..
2 h.........r..r....

Turn = 12.
  012345678901234567
0 ........r....r....
1 ....f......tttt..f
2 .............t....
3 ........tt........
4 ..................
5 ..f..............r
6 ....tt............
7 ....t.............
8 .......t....t....r
9 ..................
0 ......t...........
1 ..f..........f....
2 h............rr.r.

Turn = 15.
  012345678901234567
0 ...........r....r.
1 ....f......tttt..f
2 .............t....
3 ........tt........
4 ..................
5 ..f...............
6 ....tt............
7 ....t.............
8 .......t....t....r
9 ..............r...
0 ......t...........
1 ..f..........f...r
2 h...........r....r

Turn = 18.
  012345678901234567
0 ..............r..r
1 ....f......tttt.r.
2 .............t....
3 ........tt........
4 ..................
5 ..f...............
6 ....tt........r...
7 ....t.............
8 .......t....t.....
9 ..................
0 ......t..........r
1 ..f..........f...r
2 h........r.......r

Turn = 21.
  012345678901234567
0 .................r
1 ....f......ttrrr..
2 .............t....
3 ........tt....r..r
4 ..................
5 ..f...............
6 ....tt............
7 ....t.............
8 .......t....t.....
9 ..................
0 ......t..........r
1 ..f..........fr..r
2 h.....r...........

Turn = 24.
  012345678901234567
0 ..............r.rr
1 ....f......ttrr...
2 ............r.....
3 ........tt........
4 ..................
5 ..f...............
6 ....tt...........r
7 ....t............r
8 .......t....t....r
9 ..................
0 ......t...........
1 ..f.........r.....
2 h..r.........r....

Turn = 27.
  012345678901234567
0 ...........r....r.
1 ....f......ttt..rr
2 ...........t......
3 ........tt........
4 ..................
5 ..f..............r
6 ....tt............
7 ....t............r
8 .......t....t....r
9 ..................
0 ......t...........
1 ..f......r........
2 rr........r.......

Turn = 30.
  012345678901234567
0 ........r.....r...
1 ....f......ttt....
2 ...........t......
3 ........tt.......r
4 ................rr
5 ..f...............
6 ....tt............
7 ....t............r
8 .......t....t...r.
9 ..................
0 .r....t...........
1 ..f...r...........
2 r......r..........

Turn = 33.
  012345678901234567
0 .....r.....t......
1 ....f......ttt...r
2 ...........t......
3 ........tt....r...
4 .................r
5 ..f...............
6 ....tt............
7 .r..t...........r.
8 .......t....tr....
9 ..................
0 ......t...........
1 ..f...t...........
2 r.....t...........

Turn = 36.
  012345678901234567
0 ..r........t.....r
1 ....f......ttt...r
2 ...........t......
3 ........tt.r......
4 .r................
5 ..f...............
6 ....tt............
7 ....t.............
8 .......t...r......
9 ..................
0 ......t.....r...r.
1 r.f...t...........
2 ......t...........

Turn = 39.
  012345678901234567
0 r..........t......
1 .r..f......ttt.r.r
2 ...........t......
3 ........trr.......
4 ..................
5 ..f...............
6 ....tt............
7 ....t.............
8 r......tr.........
9 ..................
0 ......t...........
1 ..f...t...........
2 ......t.....r...r.

Turn = 42.
  012345678901234567
0 r..........t......
1 ....f......ttrr...
2 ...........t......
3 r.......t.........
4 .................r
5 r.f...............
6 ....tt...rr.......
7 ....t.............
8 ..................
9 .......rr.........
0 ......t...........
1 ..f...t...........
2 ......t.......rr..

Turn = 45.
  012345678901234567
0 ...........t......
1 ....f......tttt...
2 r..........t......
3 ........t.........
4 r.................
5 .r.r..............
6 ....tt............
7 ....t............r
8 ..................
9 .........rr...r...
0 ......t...........
1 ..f...t...........
2 ......trr........r

Turn = 48.
  012345678901234567
0 ...........t......
1 ....f......tttt...
2 ...........t......
3 ........t.........
4 ..................
5 r...r.r...........
6 ....tt........r...
7 r...t.............
8 ..................
9 ..................
0 ......t..........r
1 ..f...t..........r
2 ......tttrr.......

Turn = 51.
  012345678901234567
0 ...........t......
1 ....f......tttt...
2 ...........t......
3 ........t.....r...
4 ..................
5 .......r.r........
6 ....tt............
7 ....t.............
8 r.................
9 .................r
0 r.....t..........r
1 ..f...t...........
2 ......tttt..r.....

Turn = 54.
  012345678901234567
0 ...........t..r...
1 ....f......tttr...
2 ...........t......
3 ........t.........
4 ..................
5 ..........r.r.....
6 ....tt...........r
7 ....t............r
8 ..................
9 ..................
0 ......t...........
1 r.f...t...........
2 r.....tttt.....r..

Turn = 57.
  012345678901234567
0 ...........tt.....
1 ....f......tttt...
2 ...........t......
3 ........t........r
4 .................r
5 .............r.r..
6 ....tt............
7 ....t.............
8 ..................
9 ..................
0 r.....t...........
1 .r.r..t...........
2 ......tttt.......r
